…
doors   <- LETTERS[1:3]                          # doors 'A', 'B', and 'C'
trials  <- 150                                   # number of trials
sim_res <- tibble::tibble(
  n_sim           = seq_len(trials),
  switch_win      = replicate(n = trials, mh()),
  stay_win        = 1 - switch_win,
  sum_switch_wins = cumsum(switch_win),
  sum_stay_wins   = cumsum(stay_win),
  prob_switch_win = sum_switch_wins / (sum_switch_wins + sum_stay_wins),
  prob_stay_win   = 1 - prob_switch_win
)

# simulation results
sim_res
#> # A tibble: 150 x 7
#>    n_sim switch_win stay_win sum_switch_wins sum_stay_wins prob_switch_win
#>    <int>      <dbl>    <dbl>           <dbl>         <dbl>           <dbl>
#>  1     1          1        0               1             0           1    
#>  2     2          0        1               1             1           0.5  
#>  3     3          1        0               2             1           0.667
#>  4     4          0        1               2             2           0.5  
#>  5     5          1        0               3             2           0.6  
#>  6     6          0        1               3             3           0.5  
#>  7     7          1        0               4             3           0.571
#>  8     8          0        1               4             4           0.5  
#>  9     9          0        1               4             5           0.444
#> 10    10          1        0               5             5           0.5  
#> # … with 140 more rows, and 1 more variable: prob_stay_win <dbl>
```
…
